{
  "$schema": "http://json-schema.org/draft-04/schema#",
  "type": "array",
  "items": {
    "$ref": "#/definitions/loanScheme",
    "type": "object"
  },
  "definitions": {
    "loanScheme": {
      "$id": "#/loanScheme",
      "type": "object",
      "title": "The loanScheme Schema",
      "required": [
        "name",
        "number"
      ],
      "properties": {
        "name": {
          "$id": "#/items/properties/name",
          "type": "string",
          "title": "The Name Schema",
          "default": "",
          "examples": [
            "Солнечная"
          ],
          "pattern": "^(.*)$"
        },
        "number": {
          "$id": "#/items/properties/number",
          "type": "string",
          "title": "The Number Schema",
          "default": "",
          "examples": [
            "12"
          ],
          "pattern": "^(.*)$"
        }
      }
    }
  }
}
