{
  "customer": {
    "name": "ООО РЕНЕССАНС БРОКЕР",
    "INN": "7709258228",
    "OGRN": "1027739121981"
  },
  "cardBranch": {},
  "docInfo": {
    "date": "2018-12-27T00:00:00+0300",
    "number": "6",
    "allowedSmActions": {
      "save": true
    },
    "fromBankInfo": {}
  },
  "official": {},
  "attachContract": {},
  "tariffPlan": {},
  "loadScheme": {},
  "employeesInfo": []
}